…
### What about airports?

Finally, here’s a list of airports (IATA codes) ordered by the number of
accidents that took place within 3 miles from them, or the involved
aircraft was taking off from, or on approach to, them.

``` r
# Most dangerous airports
subset(df, !Airport.Code %in% c("", "NONE", "None", "PVT", "N/A")) %>% count(as.character(Airport.Code), sort=TRUE)
```

    ## # A tibble: 10,021 x 2
    ##    `as.character(Airport.Code)`     n
    ##    <chr>                        <int>
    ##  1 APA                            152
    ##  2 ORD                            150
    ##  3 MRI                            131
    ##  4 DEN                            113
    ##  5 OSH                            100
    ##  6 BJC                             97
    ##  7 VNY                             97
    ##  8 FFZ                             92
    ##  9 DVT                             90
    ## 10 PRC                             87
    ## # … with 10,011 more rows
…
